01000800065180920130220003000086854305559                       
0200000000000006021010442460000000290436010000002               
0200000000000009551210197530000000129617010000003               
0200000000000009551210228510000000161831010000004               
0200000000000009551110167620000000307300010000005               
0200000000000009601210112060000000143448010000006               
0200000000000008911210089100000000381237010000007               
0200000000000007001210643590000000134959010000008               
0200000000000009851210315810000000092579010000009               
0200000000000007001210661090000000151940010000010               
0200000000000009551210212510000000100377010000011               
0200000000000009861210037260000000290964010000012               
0200000000000006981210539430000000219146010000013               
0200000000000009551210196480000000192613010000014               
0200000000000009551110169490000000129502010000015               
0200000000000009051210041850000000194958010000016               
0200000000000009981110051090000000191296010000017               
0200000000000009951210595720000000138626010000018               
0200000000000009801210286140000000131938010000019               
0200000000000009551210237170000000129754010000020               
0200000000000002021210314260000000231497010000021               
0200000000000009981210057700000000153447010000022               
0200000000000006651210004540000000269866010000023               
0200000000000009701110176060000000253907010000024               
0200000000000002001210877290000000102624010000025               
0200000000000001151210184710000000153550010000026               
0200000000000009551110169830000000111472010000027               
0200000000000009901210072880000000092393010000028               
0200000000000007041110299640000000167103010000029               
0200000000000007001210673050000000126641010000030               
0200000000000008501210080420000000103728010000031               
0200000000000009201210073760000000153149010000032               
0200000000000009351210153980000000110511010000033               
0200000000000004011110632890000000154822010000034               
0200000000000008511210100560000000086778010000035               
0200000000000009601210108520000000128993010000036               
0200000000000009951110582590000000155241010000037               
0200000000000008311110034270000000110755010000038               
0200000000000006981110435760000000154941010000039               
0200000000000008961210021630000000092218010000040               
0200000000000009861210028900000000079844010000041               
0200000000000002011110642870000000211063010000042               
0200000000000002021210282940000000111499010000043               
0200000000000009501210057070000000119149010000044               
0200000000000008121210681990000000147564010000045               
0200000000000008001110613940000000145296010000046               
0200000000000009351210165940000000090690010000047               
0200000000000006011210714140000000151641010000048               
0200000000000009251210351310000000100743010000049               
0200000000000009861210040210000000060450010000050               
0200000000000008551110076780000000140446010000051               
0200000000000009331110116780000000167103010000052               
0200000000000006981110452570000000165059010000053               
0200000000000009331210149140000000152520010000054               
0200000000000006151110509620000000133212010000055               
0200000000000009331210135630000000168184010000056               
0200000000000008511210108740000000129395010000057               
0200000000000008411110044520000000146304010000058               
0200000000000002021210266360000000111667010000059               
0200000000000008011210787500000000197277010000060               
0200000000000002011210757420000000138626010000061               
0200000000000009661110009060000000071486010000062               
0200000000000004001110844680000000136237010000063               
0200000000000006991110623170000000145436010000064               
0200000000000001161210036960000000126641010000065               
0200000000000007031210382050000000103054010000066               
0200000000000009551210191860000000231951010000067               
0200000000000009861110010980000000061923010000068               
0200000000000009331210138720000000163235010000069               
0200000000000009051210059660000000092218010000070               
0200000000000002151210041130000000140247010000071               
0200000000000008501210072690000000099925010000072               
0200000000000008851110102370000000154738010000073               
0200000000000009111210106840000000174286010000074               
0200000000000009601110069500000000164633010000075               
0200000000000008451110620760000000358000010000076               
0200000000000009951210613240000000109363010000077               
0200000000000009811210020530000000152638010000078               
0200000000000008511210109060000000086778010000079               
0200000000000009721210032240000000079595010000080               
0200000000000009551210248660000000308513010000081               
0200000000000009551010077850000000189631010000082               
0200000000000009201210070410000000151641010000083               
0200000000000007501110051160000000112027010000084               
0200000000000008251210067310000000108368010000085               
0200000000000008261110002790000000228981010000086               
0200000000000009101210158730000000307224010000087               
0200000000000009331210175960000000189208010000088               
0200000000000002001210827960000000123001010000089               
0200000000000001161110020480000000156382010000090               
0200000000000009051210048580000000109363010000091               
0200000000000009111210104620000000109363010000092               
0200000000000002041210171560000000105792010000093               
0200000000000009951210636710000000143448010000094               
0200000000000009951210594460000000154641010000095               
0200000000000009101210110530000000247816010000096               
0200000000000009351210145490000000086778010000097               
0200000000000009151210010050000000140521010000098               
0200000000000006991210712030000000134746010000099               
0200000000000009551210208340000000129497010000100               
0200000000000009551210216840000000126641010000101               
0200000000000009101210110080000000241723010000102               
0200000000000009101010034110000000303692010000103               
0200000000000008881210062640000000088722010000104               
0200000000000006991210694960000000363217010000105               
0200000000000009551110115540000000198727010000106               
0200000000000009201210060310000000240051010000107               
0200000000000004101210362050000000152960010000108               
0200000000000004001210911470000000109363010000109               
0200000000000009211210042970000000148009010000110               
0200000000000008851210137940000000160031010000111               
0200000000000001161210056240000000135212010000112               
0200000000000009551210210350000000151641010000113               
0200000000000002001210898660000000086778010000114               
0200000000000006011210637280000000111753010000115               
0200000000000008451210665620000000121644010000116               
0200000000000004101210384790000000107387010000117               
0200000000000008251210077030000000161233010000118               
0200000000000006011210660170000000128459010000119               
0200000000000009961110059070000000130898010000120               
0200000000000006001210568360000000120011010000121               
0200000000000001991210370060000000094837010000122               
0200000000000009551210198110000000022451010000123               
0200000000000009551110134110000000029218010000124               
0200000000000009201210057930000000269019010000125               
0200000000000009461210596540000000126044010000126               
0200000000000004051210483760000000165059010000127               
0200000000000009351210138920000000153391010000128               
0200000000000009551110164790000000129754010000129               
0200000000000008881210071900000000165059010000130               
0200000000000006981210471990000000137811010000131               
0200000000000008801210068890000000110191010000132               
0200000000000009351210165970000000136997010000133               
0200000000000001031210838130000000126641010000134               
0200000000000007501110050780000000154346010000135               
0200000000000004011210686970000000345623010000136               
0200000000000008301110248120000000140160010000137               
0200000000000008851110110300000000108346010000138               
0200000000000009961210084490000000101534010000139               
0200000000000008251210075400000000143448010000140               
0200000000000002001210909280000000133361010000141               
0200000000000008961210026760000000124054010000142               
0200000000000004001210918270000000109222010000143               
0200000000000002041210207500000000147606010000144               
0200000000000008811210070880000000110712010000145               
0200000000000001031110769200000000232787010000146               
0200000000000002021210316400000000139770010000147               
0200000000000008961210013350000000153799010000148               
0200000000000009551210212950000000511716010000149               
0200000000000006031110644710000000247927010000150               
0200000000000009961210087490000000115775010000151               
0200000000000009351210137860000000112498010000152               
0200000000000008261210022140000000101592010000153               
0200000000000009111210096380000000086778010000154               
0200000000000006001210585170000000136627010000155               
0200000000000009811110010680000000155973010000156               
0200000000000008501210082240000000126641010000157               
0200000000000004051210470660000000128762010000158               
0200000000000008561210034950000000122196010000159               
0200000000000002041110106920000000235161010000160               
0200000000000009851110271730000000154533010000161               
0200000000000008551210118020000000166420010000162               
0200000000000002011210764340000000152960010000163               
0200000000000002151210031430000000217380010000164               
0200000000000006031210680140000000381333010000165               
0200000000000009111210081430000000126641010000166               
0200000000000009861210016940000000168909010000167               
0200000000000008811210064420000000109363010000168               
0200000000000009051210045030000000154268010000169               
0200000000000009351210145440000000103394010000170               
0200000000000004001210913290000000132488010000171               
0200000000000001031210780210000000130492010000172               
0200000000000001031210853570000000107778010000173               
0200000000000002011210787820000000099294010000174               
0200000000000008451210678310000000107220010000175               
0200000000000008411210068130000000154787010000176               
0200000000000009651210466210000000138611010000177               
0200000000000007001210708700000000139643010000178               
0200000000000009951210632520000000251951010000179               
0200000000000009651210452120000000162225010000180               
0200000000000004011210709140000000109282010000181               
0200000000000001001110941390000000091950010000182               
0200000000000008811210062840000000219902010000183               
0200000000000008851210160480000000148961010000184               
0200000000000001991210306670000000078862010000185               
0200000000000005011210827770000000154561010000186               
0200000000000008561210023900000000172783010000187               
0200000000000004011010496680000000276072010000188               
0200000000000009861110014750000000128500010000189               
0200000000000009211110024650000000167689010000190               
0200000000000009651110439420000000155671010000191               
0200000000000009501210053750000000152960010000192               
0200000000000006041110301540000000151641010000193               
0200000000000006151210577410000000053617010000194               
0200000000000009811210020990000000131844010000195               
0200000000000009961110075080000000097408010000196               
0200000000000008261210015050000000088802010000197               
0200000000000009331110127260000000265757010000198               
0200000000000008001210685610000000109363010000199               
0200000000000006041110318380000000161683010000200               
0200000000000002001210872860000000117605010000201               
0200000000000006011110522280000000257683010000202               
0200000000000002001010558990000000294657010000203               
0200000000000008451210635580000000093937010000204               
0200000000000008011110703320000000185733010000205               
0200000000000009651210457160000000235246010000206               
0200000000000009551210203570000000062346010000207               
0200000000000008811210066860000000197878010000208               
09000000207000000000031986335                                   
